{
  "wrt": true,
  "stripBsp": false,
  "shiftArgv": false,
  "name": "pm",
  "friendlyName": "Package Manager CLI",
  "description": "The command line interface for the Package Manager",
  "author": "Onofficiel",
  "startupClass": "PkgMgrCli",
  "copyright": "Copyright (C) Onofficiel 2023.",
  "icon": "mime/executable",
  "subsys": "cli",
  "version": 1.0,
  "build": {
    "jsIn": [
      "main.js"
    ]
  }
}
